<svg width="22" height="22" viewBox="0 0 22 22" fill="none" xmlns="http://www.w3.org/2000/svg">
    <path d="M3.66671 3.66675L18.3334 18.3334" stroke="#E7833D" stroke-width="2" stroke-linecap="round" stroke-linejoin="round"/>
    <path d="M18.3334 3.66675L3.66671 18.3334" stroke="#E7833D" stroke-width="2" stroke-linecap="round" stroke-linejoin="round"/>
</svg>
